Handling Missing Values NOTES
…
colSums(df3 == "Missing", na.rm = TRUE)

Survived   Pclass      Sex      Age    SibSp    Parch     Fare    Cabin 
       0        0        0        0        0        0       27        0 
Embarked 
       0 

Approach 1: Remove Rows

drop rows that have any NAs

drop_na(df2)

# A tibble: 167 × 9
   Survived Pclass Sex      Age SibSp Parch Fare    Cabin       Embarked
      <dbl> <chr>  <chr>  <dbl> <dbl> <dbl> <chr>   <chr>       <chr>   
 1        1 1      female    38     1     0 71.2833 C85         C       
 2        1 1      female    35     1     0 53.1    C123        S       
 3        0 1      male      54     0     0 51.8625 E46         S       
 4        1 3      female     4     1     1 16.7    G6          S       
 5        1 1      female    58     0     0 26.55   C103        S       
 6        1 2      male      34     0     0 13      D56         S       
 7        1 1      male      28     0     0 35.5    A6          S       
 8        0 1      male      19     3     2 263     C23 C25 C27 S       
 9        1 2      female    29     0     0 10.5    F33         S       
10        0 3      male      25     0     0 7.65    F G73       S       
# ℹ 157 more rows

drop the rows that have any NAs in Age or Sex

drop_na(df2, Age, Sex)

# A tibble: 689 × 9
   Survived Pclass Sex      Age SibSp Parch Fare    Cabin Embarked
      <dbl> <chr>  <chr>  <dbl> <dbl> <dbl> <chr>   <chr> <chr>   
 1        0 3      male      22     1     0 7.25    <NA>  S       
 2        1 1      female    38     1     0 71.2833 C85   C       
 3        1 3      female    26     0     0 7.925   <NA>  S       
 4        1 1      female    35     1     0 53.1    C123  S       
 5        0 3      male      35     0     0 8.05    <NA>  S       
 6        0 1      male      54     0     0 51.8625 E46   S       
 7        0 3      male       2     3     1 21.075  <NA>  S       
 8        1 3      female    27     0     2 11.1333 <NA>  S       
 9        1 2      female    14     1     0 30.0708 <NA>  C       
10        1 3      female     4     1     1 16.7    G6    S       
# ℹ 679 more rows

drop columns with missing values

df2 %>% select (-Age, -Sex)

# A tibble: 891 × 7
   Survived Pclass SibSp Parch Fare    Cabin Embarked
      <dbl> <chr>  <dbl> <dbl> <chr>   <chr> <chr>   
 1        0 3          1     0 7.25    <NA>  S       
 2        1 1          1     0 71.2833 C85   C       
 3        1 3          0     0 7.925   <NA>  S       
 4        1 1          1     0 53.1    C123  S       
 5        0 3          0     0 8.05    <NA>  S       
 6        0 3          0     0 8.4583  <NA>  Q       
 7        0 1          0     0 51.8625 E46   S       
 8        0 3          3     1 21.075  <NA>  S       
 9        1 3          0     2 11.1333 <NA>  S       
10        1 2          1     0 30.0708 <NA>  C       
# ℹ 881 more rows

approach 2: fill in missing values with previous or next value

df %>% fill(Age, Sex, Cabin, .direction = 'updown')

# A tibble: 891 × 9
   Survived Pclass Sex      Age SibSp Parch Fare    Cabin Embarked
      <dbl> <chr>  <chr>  <dbl> <dbl> <dbl> <chr>   <chr> <chr>   
 1        0 3      male      22     1     0 7.25    C85   S       
 2        1 1      female    38     1     0 71.2833 C85   C       
 3        1 3      female    26     0     0 7.925   C123  S       
 4        1 1      female    35     1     0 53.1    C123  S       
 5        0 3      male      35     0     0 8.05    E46   S       
 6        0 3      male      54     0     0 8.4583  E46   Q       
 7        0 1      male      54     0     0 51.8625 E46   S       
 8        0 3      male       2     3     1 21.075  G6    S       
 9        1 3      female    27     0     2 11.1333 G6    S       
10        1 2      female    14     1     0 30.0708 G6    C       
# ℹ 881 more rows
…
